%YAML 1.1
%TAG !u! tag:unity3d.com,2011:
--- !u!114 &11400000
MonoBehaviour:
  m_ObjectHideFlags: 0
  m_CorrespondingSourceObject: {fileID: 0}
  m_PrefabInstance: {fileID: 0}
  m_PrefabAsset: {fileID: 0}
  m_GameObject: {fileID: 0}
  m_Enabled: 1
  m_EditorHideFlags: 0
  m_Script: {fileID: 11500000, guid: e3c1af9621e40064b907d18085e21fb7, type: 3}
  m_Name: New SpatialObjectMeshObserverProfile
  m_EditorClassIdentifier: 
  isCustomProfile: 1
  startupBehavior: 0
  isStationaryObserver: 0
  observationExtents: {x: 3, y: 3, z: 3}
  observerVolumeType: 1
  updateInterval: 3.5
  meshPhysicsLayer: 31
  levelOfDetail: 0
  trianglesPerCubicMeter: 0
  recalculateNormals: 1
  displayOption: 1
  visibleMaterial: {fileID: 2100000, guid: b24e702ba4a7dd14bb78e04ea42311ff, type: 2}
  occlusionMaterial: {fileID: 2100000, guid: a809c7ea182b699409443d46d5b42435, type: 2}
  physicsMaterial: {fileID: 0}
  runtimeSpatialMeshPrefab: {fileID: 0}
  spatialMeshObject: {fileID: 100000, guid: 2d029f2a1321676428ce89872882c605, type: 3}
