%YAML 1.1
%TAG !u! tag:unity3d.com,2011:
--- !u!114 &11400000
MonoBehaviour:
  m_ObjectHideFlags: 0
  m_CorrespondingSourceObject: {fileID: 0}
  m_PrefabInstance: {fileID: 0}
  m_PrefabAsset: {fileID: 0}
  m_GameObject: {fileID: 0}
  m_Enabled: 1
  m_EditorHideFlags: 0
  m_Script: {fileID: 11500000, guid: 19f279aded72cb741b4de89a54359dd4, type: 3}
  m_Name: SpatialAwarenessRealitySpatialAwarenessSystemProfile
  m_EditorClassIdentifier: 
  isCustomProfile: 1
  observerConfigurations:
  - componentType:
      reference: Microsoft.MixedReality.Toolkit.XRSDK.WindowsMixedReality.WindowsMixedRealitySpatialMeshObserver,
        Microsoft.MixedReality.Toolkit.Providers.XRSDK.WindowsMixedReality
    componentName: XR SDK Windows Mixed Reality Spatial Mesh Observer
    priority: 0
    runtimePlatform: 8
    observerProfile: {fileID: 11400000, guid: 029c3fb9887b4594f83d19731d312b47, type: 2}
  - componentType:
      reference: Microsoft.MixedReality.Toolkit.XRSDK.GenericXRSDKSpatialMeshObserver,
        Microsoft.MixedReality.Toolkit.Providers.XRSDK
    componentName: XR SDK Spatial Mesh Observer
    priority: 0
    runtimePlatform: 0
    observerProfile: {fileID: 11400000, guid: 1a69d6d52ed8fe24ebb7e7f9cfff5793, type: 2}
